<svg xmlns="http://www.w3.org/2000/svg" viewBox="0 0 512 512" width="40" height="40">
	<style>
		tspan { white-space:pre }
		.shp0 { fill: #000000 } 
	</style>
	<path id="Layer" class="shp0" d="M394.39 234.72L309.06 234.72C297.46 234.72 288.06 244.13 288.06 255.72C288.06 267.32 297.46 276.72 309.06 276.72L394.39 276.72C405.99 276.72 415.39 267.32 415.39 255.72C415.39 244.13 405.99 234.72 394.39 234.72Z" />
	<path id="Layer" fill-rule="evenodd" class="shp0" d="M266.06 149.06L266.06 362.39C266.06 379.45 246.72 389.39 232.85 379.48L163.66 330.06L127.72 330.06C116.13 330.06 106.72 320.66 106.72 309.06L106.72 202.39C106.72 190.79 116.13 181.39 127.72 181.39L163.66 181.39L232.85 131.97C246.73 122.05 266.06 132.01 266.06 149.06ZM224.06 189.86L182.6 219.48C175.47 224.57 170.38 223.39 148.72 223.39L148.72 288.06C170.88 288.06 175.51 286.91 182.6 291.97L224.06 321.58L224.06 189.86Z" />
</svg>